{
  "name": "item",
  "base": "PersistedModel",
  "strict": false,
  "idInjection": false,
  "options": {
    "validateUpsert": true
  },
  "properties": {
    "titol": {
      "type": "string"
    },
    "text": {
      "type": "string"
    },
    "date": {
      "type": "date"
    },
    "user": {
      "type": "string"
    },
    "category": {
      "type": "string"
    },
    "price": {
      "type": "number"
    }
  },
  "validations": [],
  "relations": {},
  "acls": [],
  "methods": {}
}
