{
  "db": {
    "host": "ds037234.mongolab.com",
    "port": 37234,
    "database": "devapi01",
    "password": "admin1991",
    "name": "db",
    "connector": "mongodb",
    "user": "usuari01"
  }
}
