{
  "_meta": {
    "sources": [
      "loopback/common/models",
      "loopback/server/models",
      "../common/models",
      "./models"
    ],
    "mixins": [
      "loopback/common/mixins",
      "loopback/server/mixins",
      "../common/mixins",
      "./mixins"
    ]
  },
  "User": {
    "dataSource": "db",
    "public": true
  },
  "AccessToken": {
    "dataSource": "db",
    "public": false
  },
  "ACL": {
    "dataSource": "db",
    "public": false
  },
  "RoleMapping": {
    "dataSource": "db",
    "public": false
  },
  "Role": {
    "dataSource": "db",
    "public": false
  },
  "item": {
    "dataSource": "db",
    "public": true,
    "$promise": {},
    "$resolved": true
  },
  "article": {
    "dataSource": "db",
    "public": true
  },
  "categoria": {
    "dataSource": "db",
    "public": true
  },
  "tema": {
    "dataSource": "db",
    "public": true
  },
  "section": {
    "dataSource": "db",
    "public": true
  },
  "message": {
    "dataSource": "db",
    "public": true
  },
  "subsection": {
    "dataSource": "db",
    "public": true
  },
  "Customer": {
    "dataSource": "db",
    "public": true
  }
}
